<mxfile host="65bd71144e" pages="5">
    <diagram id="qdG8iX79VHu7KITj_ZMQ" name="Dependencies">
        <mxGraphModel dx="1094" dy="667" grid="1" gridSize="10" guides="1" tooltips="1" connect="1" arrows="1" fold="1" page="1" pageScale="1" pageWidth="827" pageHeight="1169" math="0" shadow="0">
            <root>
                <mxCell id="0"/>
                <mxCell id="1" parent="0"/>
                <UserObject label="" link="https://github.com/RA-Consulting-GmbH/openscenario.api.test" linkTarget="_blank" id="xhKkH3lc2efCmdcfyuGa-4">
                    <mxCell style="group" parent="1" vertex="1" connectable="0">
                        <mxGeometry x="63" y="49" width="220" height="335" as="geometry"/>
                    </mxCell>
                </UserObject>
                <mxCell id="YvpkXVZpcQ3CE4Kt-1fF-31" value="&lt;font color=&quot;#ffffff&quot;&gt;&amp;nbsp;openscenario.api&lt;/font&gt;" style="html=1;dropTarget=0;fontColor=#000000;fillColor=default;align=left;verticalAlign=top;rounded=0;" parent="xhKkH3lc2efCmdcfyuGa-4" vertex="1">
                    <mxGeometry width="220" height="285" as="geometry"/>
                </mxCell>
                <mxCell id="YvpkXVZpcQ3CE4Kt-1fF-32" value="" style="shape=module;jettyWidth=8;jettyHeight=4;fontColor=#000000;fillColor=default;rounded=0;" parent="YvpkXVZpcQ3CE4Kt-1fF-31" vertex="1">
                    <mxGeometry x="1" width="20" height="20" relative="1" as="geometry">
                        <mxPoint x="-27" y="7" as="offset"/>
                    </mxGeometry>
                </mxCell>
                <mxCell id="YvpkXVZpcQ3CE4Kt-1fF-7" value="«interface»&lt;br&gt;&lt;b&gt;OpenScenario API&lt;/b&gt;" style="html=1;rounded=0;" parent="xhKkH3lc2efCmdcfyuGa-4" vertex="1">
                    <mxGeometry y="285" width="220" height="50" as="geometry"/>
                </mxCell>
                <UserObject label="Simulator" link="https://gitlab.eclipse.org/eclipse/openpass/opSimulation" id="YvpkXVZpcQ3CE4Kt-1fF-2">
                    <mxCell style="html=1;rounded=0;fillColor=#f5f5f5;fontColor=#333333;strokeColor=#666666;" parent="1" vertex="1">
                        <mxGeometry x="40" y="650" width="270" height="50" as="geometry"/>
                    </mxCell>
                </UserObject>
                <UserObject label="OpenScenarioEngine" link="https://gitlab.eclipse.org/eclipse/openpass/openscenario1_engine" id="YvpkXVZpcQ3CE4Kt-1fF-4">
                    <mxCell style="html=1;fillColor=#1ba1e2;strokeColor=#006EAF;fontColor=#ffffff;fontStyle=1;rounded=0;verticalAlign=middle;fontSize=16;align=center;" parent="1" vertex="1">
                        <mxGeometry x="40" y="420" width="530" height="90" as="geometry"/>
                    </mxCell>
                </UserObject>
                <mxCell id="YvpkXVZpcQ3CE4Kt-1fF-5" value="Use" style="endArrow=open;endSize=12;dashed=1;html=1;rounded=0;entryX=0.5;entryY=0;entryDx=0;entryDy=0;" parent="1" target="YvpkXVZpcQ3CE4Kt-1fF-1" edge="1">
                    <mxGeometry width="160" relative="1" as="geometry">
                        <mxPoint x="323" y="510" as="sourcePoint"/>
                        <mxPoint x="283" y="410" as="targetPoint"/>
                    </mxGeometry>
                </mxCell>
                <mxCell id="YvpkXVZpcQ3CE4Kt-1fF-6" value="Use" style="endArrow=open;endSize=12;dashed=1;html=1;rounded=0;entryX=0.5;entryY=1;entryDx=0;entryDy=0;exitX=0.25;exitY=0;exitDx=0;exitDy=0;" parent="1" source="YvpkXVZpcQ3CE4Kt-1fF-4" target="YvpkXVZpcQ3CE4Kt-1fF-7" edge="1">
                    <mxGeometry width="160" relative="1" as="geometry">
                        <mxPoint x="323" y="420" as="sourcePoint"/>
                        <mxPoint x="235" y="530" as="targetPoint"/>
                    </mxGeometry>
                </mxCell>
                <mxCell id="YvpkXVZpcQ3CE4Kt-1fF-9" value="OpenScenarioLib" style="html=1;rounded=0;" parent="1" vertex="1">
                    <mxGeometry x="118" y="240" width="110" height="50" as="geometry"/>
                </mxCell>
                <mxCell id="YvpkXVZpcQ3CE4Kt-1fF-10" value="" style="endArrow=block;dashed=1;endFill=0;endSize=12;html=1;rounded=0;exitX=0.5;exitY=1;exitDx=0;exitDy=0;entryX=0.5;entryY=0;entryDx=0;entryDy=0;" parent="1" source="YvpkXVZpcQ3CE4Kt-1fF-9" target="YvpkXVZpcQ3CE4Kt-1fF-7" edge="1">
                    <mxGeometry width="160" relative="1" as="geometry">
                        <mxPoint x="420" y="300" as="sourcePoint"/>
                        <mxPoint x="580" y="300" as="targetPoint"/>
                    </mxGeometry>
                </mxCell>
                <mxCell id="YvpkXVZpcQ3CE4Kt-1fF-12" value="" style="endArrow=block;dashed=1;endFill=0;endSize=12;html=1;rounded=0;entryX=0.5;entryY=0;entryDx=0;entryDy=0;exitX=0.172;exitY=1.011;exitDx=0;exitDy=0;exitPerimeter=0;" parent="1" source="YvpkXVZpcQ3CE4Kt-1fF-4" target="YvpkXVZpcQ3CE4Kt-1fF-11" edge="1">
                    <mxGeometry width="160" relative="1" as="geometry">
                        <mxPoint x="228" y="470" as="sourcePoint"/>
                        <mxPoint x="276" y="580" as="targetPoint"/>
                    </mxGeometry>
                </mxCell>
                <mxCell id="YvpkXVZpcQ3CE4Kt-1fF-13" value="Use" style="endArrow=open;endSize=12;dashed=1;html=1;rounded=0;entryX=0.5;entryY=1;entryDx=0;entryDy=0;exitX=0.335;exitY=-0.017;exitDx=0;exitDy=0;exitPerimeter=0;" parent="1" source="YvpkXVZpcQ3CE4Kt-1fF-2" target="YvpkXVZpcQ3CE4Kt-1fF-11" edge="1">
                    <mxGeometry width="160" relative="1" as="geometry">
                        <mxPoint x="130" y="644" as="sourcePoint"/>
                        <mxPoint x="276" y="565" as="targetPoint"/>
                    </mxGeometry>
                </mxCell>
                <UserObject label="yase" link="https://gitlab.eclipse.org/eclipse/openpass/yase" id="YvpkXVZpcQ3CE4Kt-1fF-17">
                    <mxCell style="html=1;fillColor=#008a00;rounded=0;fontColor=#ffffff;strokeColor=#005700;" parent="1" vertex="1">
                        <mxGeometry x="382" y="334" width="110" height="50" as="geometry"/>
                    </mxCell>
                </UserObject>
                <mxCell id="YvpkXVZpcQ3CE4Kt-1fF-19" value="ANTLR" style="html=1;rounded=0;" parent="1" vertex="1">
                    <mxGeometry x="119.5" y="80" width="108.5" height="50" as="geometry"/>
                </mxCell>
                <mxCell id="YvpkXVZpcQ3CE4Kt-1fF-20" value="Use" style="endArrow=open;endSize=12;dashed=1;html=1;rounded=0;entryX=0.5;entryY=1;entryDx=0;entryDy=0;exitX=0.5;exitY=0;exitDx=0;exitDy=0;" parent="1" source="YvpkXVZpcQ3CE4Kt-1fF-21" target="YvpkXVZpcQ3CE4Kt-1fF-19" edge="1">
                    <mxGeometry width="160" relative="1" as="geometry">
                        <mxPoint x="233" y="240" as="sourcePoint"/>
                        <mxPoint x="526" y="465" as="targetPoint"/>
                    </mxGeometry>
                </mxCell>
                <mxCell id="YvpkXVZpcQ3CE4Kt-1fF-21" value="ExpressionLib" style="html=1;rounded=0;" parent="1" vertex="1">
                    <mxGeometry x="118" y="160" width="110" height="50" as="geometry"/>
                </mxCell>
                <mxCell id="YvpkXVZpcQ3CE4Kt-1fF-22" value="Use" style="endArrow=open;endSize=12;dashed=1;html=1;rounded=0;exitX=0.5;exitY=0;exitDx=0;exitDy=0;entryX=0.5;entryY=1;entryDx=0;entryDy=0;" parent="1" source="YvpkXVZpcQ3CE4Kt-1fF-9" target="YvpkXVZpcQ3CE4Kt-1fF-21" edge="1">
                    <mxGeometry width="160" relative="1" as="geometry">
                        <mxPoint x="242.5" y="250" as="sourcePoint"/>
                        <mxPoint x="205" y="210" as="targetPoint"/>
                    </mxGeometry>
                </mxCell>
                <UserObject label="nholthaus/units" link="https://github.com/nholthaus/units" id="YvpkXVZpcQ3CE4Kt-1fF-26">
                    <mxCell style="html=1;rounded=0;" parent="1" vertex="1">
                        <mxGeometry x="460" y="550" width="110" height="50" as="geometry"/>
                    </mxCell>
                </UserObject>
                <mxCell id="YvpkXVZpcQ3CE4Kt-1fF-27" value="Use" style="endArrow=open;endSize=12;dashed=1;html=1;rounded=0;exitX=1;exitY=0.5;exitDx=0;exitDy=0;entryX=0;entryY=0.5;entryDx=0;entryDy=0;" parent="1" source="YvpkXVZpcQ3CE4Kt-1fF-1" target="YvpkXVZpcQ3CE4Kt-1fF-26" edge="1">
                    <mxGeometry width="160" relative="1" as="geometry">
                        <mxPoint x="369" y="490" as="sourcePoint"/>
                        <mxPoint x="429" y="490" as="targetPoint"/>
                    </mxGeometry>
                </mxCell>
                <mxCell id="YvpkXVZpcQ3CE4Kt-1fF-30" value="Use" style="endArrow=open;endSize=12;dashed=1;html=1;rounded=0;entryX=0.5;entryY=0;entryDx=0;entryDy=0;" parent="1" target="YvpkXVZpcQ3CE4Kt-1fF-26" edge="1">
                    <mxGeometry x="-0.0066" y="-2" width="160" relative="1" as="geometry">
                        <mxPoint x="515" y="510" as="sourcePoint"/>
                        <mxPoint x="333" y="560" as="targetPoint"/>
                        <mxPoint as="offset"/>
                    </mxGeometry>
                </mxCell>
                <UserObject label="«interface»&lt;br&gt;&lt;b&gt;mantle_api::IEnvironment&lt;/b&gt;" link="https://gitlab.eclipse.org/eclipse/openpass/mantle-api" id="YvpkXVZpcQ3CE4Kt-1fF-1">
                    <mxCell style="html=1;rounded=0;fillColor=#0050ef;strokeColor=#001DBC;fontColor=#ffffff;" parent="1" vertex="1">
                        <mxGeometry x="233" y="550" width="180" height="50" as="geometry"/>
                    </mxCell>
                </UserObject>
                <UserObject label="«interface»&lt;br&gt;&lt;b&gt;mantle_api::IScenarioEngine&lt;/b&gt;" link="https://gitlab.eclipse.org/eclipse/openpass/mantle-api" id="YvpkXVZpcQ3CE4Kt-1fF-11">
                    <mxCell style="html=1;rounded=0;fillColor=#0050ef;fontColor=#ffffff;strokeColor=#001DBC;" parent="1" vertex="1">
                        <mxGeometry x="41" y="550" width="180" height="50" as="geometry"/>
                    </mxCell>
                </UserObject>
                <mxCell id="xhKkH3lc2efCmdcfyuGa-1" value="Use" style="endArrow=open;endSize=12;dashed=1;html=1;rounded=0;entryX=0.5;entryY=1;entryDx=0;entryDy=0;exitX=0.75;exitY=0;exitDx=0;exitDy=0;" parent="1" source="YvpkXVZpcQ3CE4Kt-1fF-4" target="YvpkXVZpcQ3CE4Kt-1fF-17" edge="1">
                    <mxGeometry x="-0.0066" y="-2" width="160" relative="1" as="geometry">
                        <mxPoint x="525" y="520" as="sourcePoint"/>
                        <mxPoint x="525" y="560" as="targetPoint"/>
                        <mxPoint as="offset"/>
                    </mxGeometry>
                </mxCell>
                <mxCell id="NAHridRGIa1oC83wJ3iK-1" value="OpenSCENARIO&lt;br&gt;description" style="shape=cylinder3;whiteSpace=wrap;html=1;boundedLbl=1;backgroundOutline=1;size=15;fillColor=#1ba1e2;fontColor=#ffffff;strokeColor=#006EAF;" parent="1" vertex="1">
                    <mxGeometry x="384" y="156.5" width="108" height="70" as="geometry"/>
                </mxCell>
                <mxCell id="NAHridRGIa1oC83wJ3iK-2" value="" style="endArrow=classic;html=1;rounded=0;exitX=0;exitY=0.5;exitDx=0;exitDy=0;exitPerimeter=0;entryX=1;entryY=0.5;entryDx=0;entryDy=0;" parent="1" source="NAHridRGIa1oC83wJ3iK-1" target="YvpkXVZpcQ3CE4Kt-1fF-31" edge="1">
                    <mxGeometry width="50" height="50" relative="1" as="geometry">
                        <mxPoint x="350" y="150" as="sourcePoint"/>
                        <mxPoint x="300" y="215" as="targetPoint"/>
                    </mxGeometry>
                </mxCell>
                <mxCell id="NAHridRGIa1oC83wJ3iK-3" value="is interpreted" style="edgeLabel;html=1;align=center;verticalAlign=middle;resizable=0;points=[];" parent="NAHridRGIa1oC83wJ3iK-2" vertex="1" connectable="0">
                    <mxGeometry x="0.2079" y="-1" relative="1" as="geometry">
                        <mxPoint x="17" y="1" as="offset"/>
                    </mxGeometry>
                </mxCell>
                <mxCell id="5" value="Use" style="endArrow=open;endSize=12;dashed=1;html=1;rounded=0;entryX=0.25;entryY=1;entryDx=0;entryDy=0;exitX=0.881;exitY=0;exitDx=0;exitDy=0;exitPerimeter=0;" parent="1" source="YvpkXVZpcQ3CE4Kt-1fF-2" target="YvpkXVZpcQ3CE4Kt-1fF-1" edge="1">
                    <mxGeometry width="160" relative="1" as="geometry">
                        <mxPoint x="250" y="650" as="sourcePoint"/>
                        <mxPoint x="250" y="690" as="targetPoint"/>
                    </mxGeometry>
                </mxCell>
                <UserObject label="Environment" link="https://gitlab.eclipse.org/eclipse/openpass/mantle-api" id="6">
                    <mxCell style="html=1;rounded=0;fillColor=#a20025;strokeColor=#6F0000;fontColor=#ffffff;" parent="1" vertex="1">
                        <mxGeometry x="320" y="650" width="250" height="50" as="geometry"/>
                    </mxCell>
                </UserObject>
                <mxCell id="7" value="" style="endArrow=block;dashed=1;endFill=0;endSize=12;html=1;rounded=0;entryX=0.75;entryY=1;entryDx=0;entryDy=0;exitX=0.191;exitY=-0.009;exitDx=0;exitDy=0;exitPerimeter=0;" parent="1" source="6" target="YvpkXVZpcQ3CE4Kt-1fF-1" edge="1">
                    <mxGeometry width="160" relative="1" as="geometry">
                        <mxPoint x="141.16000000000008" y="520.99" as="sourcePoint"/>
                        <mxPoint x="141" y="560" as="targetPoint"/>
                    </mxGeometry>
                </mxCell>
                <mxCell id="8" value="Use" style="endArrow=open;endSize=12;dashed=1;html=1;rounded=0;entryX=0.25;entryY=1;entryDx=0;entryDy=0;exitX=0.881;exitY=0;exitDx=0;exitDy=0;exitPerimeter=0;" parent="1" edge="1">
                    <mxGeometry width="160" relative="1" as="geometry">
                        <mxPoint x="514.5799999999999" y="650" as="sourcePoint"/>
                        <mxPoint x="514.71" y="600" as="targetPoint"/>
                    </mxGeometry>
                </mxCell>
            </root>
        </mxGraphModel>
    </diagram>
    <diagram id="iCUB-TOaVP4SKm_fE0de" name="InitPath">
        <mxGraphModel dx="754" dy="460" grid="1" gridSize="10" guides="1" tooltips="1" connect="1" arrows="1" fold="1" page="1" pageScale="1" pageWidth="827" pageHeight="1169" math="0" shadow="0">
            <root>
                <mxCell id="0"/>
                <mxCell id="1" parent="0"/>
                <mxCell id="IQajVkb-PLSWKftT9WMx-2" value="Init" style="html=1;fontColor=default;fillColor=default;fontSize=14;" parent="1" vertex="1">
                    <mxGeometry x="233.9988571428571" y="40" width="150.33228571428572" height="68.33333333333333" as="geometry"/>
                </mxCell>
                <mxCell id="IQajVkb-PLSWKftT9WMx-8" value="InitActions&lt;br style=&quot;font-size: 14px;&quot;&gt;&lt;i style=&quot;font-size: 14px;&quot;&gt;(ParallelNode)&lt;/i&gt;" style="html=1;fontColor=default;fillColor=default;fontSize=14;" parent="1" vertex="1">
                    <mxGeometry x="233.9988571428571" y="135.66666666666669" width="150.33228571428572" height="68.33333333333333" as="geometry"/>
                </mxCell>
                <mxCell id="IQajVkb-PLSWKftT9WMx-1" style="edgeStyle=orthogonalEdgeStyle;rounded=0;orthogonalLoop=1;jettySize=auto;html=1;exitX=0.5;exitY=1;exitDx=0;exitDy=0;entryX=0.5;entryY=0;entryDx=0;entryDy=0;fontColor=default;" parent="1" source="IQajVkb-PLSWKftT9WMx-2" target="IQajVkb-PLSWKftT9WMx-8" edge="1">
                    <mxGeometry relative="1" as="geometry"/>
                </mxCell>
                <mxCell id="IQajVkb-PLSWKftT9WMx-9" value="GlobalAction" style="html=1;fontColor=default;fillColor=default;fontSize=14;" parent="1" vertex="1">
                    <mxGeometry x="40" y="272.33" width="180" height="27.33" as="geometry"/>
                </mxCell>
                <mxCell id="IQajVkb-PLSWKftT9WMx-6" style="edgeStyle=orthogonalEdgeStyle;rounded=0;orthogonalLoop=1;jettySize=auto;html=1;exitX=0.25;exitY=1;exitDx=0;exitDy=0;entryX=0.5;entryY=0;entryDx=0;entryDy=0;fontColor=default;" parent="1" source="IQajVkb-PLSWKftT9WMx-8" target="IQajVkb-PLSWKftT9WMx-9" edge="1">
                    <mxGeometry relative="1" as="geometry"/>
                </mxCell>
                <mxCell id="IQajVkb-PLSWKftT9WMx-7" value="n" style="edgeLabel;html=1;align=center;verticalAlign=middle;resizable=0;points=[];fontColor=default;" parent="IQajVkb-PLSWKftT9WMx-6" vertex="1" connectable="0">
                    <mxGeometry x="0.6179" relative="1" as="geometry">
                        <mxPoint x="28" as="offset"/>
                    </mxGeometry>
                </mxCell>
                <mxCell id="IQajVkb-PLSWKftT9WMx-10" value="UserDefinedAction" style="html=1;fontColor=default;fillColor=default;fontSize=14;" parent="1" vertex="1">
                    <mxGeometry x="233.9988571428571" y="272.33333333333337" width="150.33228571428572" height="27.333333333333336" as="geometry"/>
                </mxCell>
                <mxCell id="IQajVkb-PLSWKftT9WMx-3" value="n" style="edgeStyle=orthogonalEdgeStyle;rounded=0;orthogonalLoop=1;jettySize=auto;html=1;exitX=0.5;exitY=1;exitDx=0;exitDy=0;entryX=0.5;entryY=0;entryDx=0;entryDy=0;fontColor=default;" parent="1" source="IQajVkb-PLSWKftT9WMx-8" target="IQajVkb-PLSWKftT9WMx-10" edge="1">
                    <mxGeometry relative="1" as="geometry"/>
                </mxCell>
                <mxCell id="IQajVkb-PLSWKftT9WMx-11" value="PrivateAction" style="html=1;fontColor=default;fillColor=default;fontSize=14;" parent="1" vertex="1">
                    <mxGeometry x="398" y="272.33" width="172" height="27.33" as="geometry"/>
                </mxCell>
                <mxCell id="IQajVkb-PLSWKftT9WMx-4" style="edgeStyle=orthogonalEdgeStyle;rounded=0;orthogonalLoop=1;jettySize=auto;html=1;exitX=0.75;exitY=1;exitDx=0;exitDy=0;entryX=0.5;entryY=0;entryDx=0;entryDy=0;fontColor=default;" parent="1" source="IQajVkb-PLSWKftT9WMx-8" target="IQajVkb-PLSWKftT9WMx-11" edge="1">
                    <mxGeometry relative="1" as="geometry"/>
                </mxCell>
                <mxCell id="IQajVkb-PLSWKftT9WMx-5" value="n" style="edgeLabel;html=1;align=center;verticalAlign=middle;resizable=0;points=[];fontColor=default;" parent="IQajVkb-PLSWKftT9WMx-4" vertex="1" connectable="0">
                    <mxGeometry x="0.2785" relative="1" as="geometry">
                        <mxPoint as="offset"/>
                    </mxGeometry>
                </mxCell>
                <mxCell id="IQajVkb-PLSWKftT9WMx-12" value="&lt;font style=&quot;font-size: 12px;&quot;&gt;&lt;span style=&quot;background-color: initial; font-size: 12px;&quot;&gt;&amp;lt;&amp;lt;specializes to&amp;gt;&amp;gt;&lt;br style=&quot;font-size: 12px;&quot;&gt;- EntityAction (&lt;i style=&quot;font-size: 12px;&quot;&gt;contains Logic&lt;/i&gt;)&lt;br style=&quot;font-size: 12px;&quot;&gt;&lt;/span&gt;&amp;nbsp; &amp;nbsp;- AddEntityAction&lt;br style=&quot;font-size: 12px;&quot;&gt;&amp;nbsp; &amp;nbsp;- DeleteEntityAction&lt;br style=&quot;font-size: 12px;&quot;&gt;&lt;span style=&quot;background-color: initial; font-size: 12px;&quot;&gt;- EnvironmentAction&lt;br style=&quot;font-size: 12px;&quot;&gt;&lt;/span&gt;&lt;i style=&quot;font-size: 12px;&quot;&gt;... &lt;br style=&quot;font-size: 12px;&quot;&gt;see Standard (v1.1)&lt;/i&gt;&lt;br style=&quot;font-size: 12px;&quot;&gt;&lt;/font&gt;" style="html=1;fontColor=default;fillColor=default;align=left;verticalAlign=top;spacingLeft=1;fontSize=12;" parent="1" vertex="1">
                    <mxGeometry x="40" y="299.67" width="180.33" height="120.33" as="geometry"/>
                </mxCell>
                <mxCell id="IQajVkb-PLSWKftT9WMx-13" value="&lt;font style=&quot;font-size: 12px;&quot;&gt;&lt;font style=&quot;font-size: 12px;&quot;&gt;&amp;lt;&amp;lt;specializes to&amp;gt;&amp;gt;&lt;/font&gt;&lt;span style=&quot;background-color: initial; font-size: 12px;&quot;&gt;&lt;font style=&quot;font-size: 12px;&quot;&gt;&lt;br style=&quot;font-size: 12px;&quot;&gt;- CustomCommandAction&lt;/font&gt;&lt;/span&gt;&lt;br style=&quot;font-size: 12px;&quot;&gt;&lt;/font&gt;" style="html=1;fontColor=default;fillColor=default;align=left;verticalAlign=top;spacingLeft=1;fontSize=12;" parent="1" vertex="1">
                    <mxGeometry x="233.9988571428571" y="299.6666666666667" width="150.33228571428572" height="54.66666666666667" as="geometry"/>
                </mxCell>
                <mxCell id="IQajVkb-PLSWKftT9WMx-14" value="&lt;font style=&quot;font-size: 12px;&quot;&gt;&lt;font style=&quot;font-size: 12px;&quot;&gt;&amp;lt;&amp;lt;specializes to&amp;gt;&amp;gt;&lt;/font&gt;&lt;span style=&quot;background-color: initial; font-size: 12px;&quot;&gt;&lt;font style=&quot;font-size: 12px;&quot;&gt;&lt;br style=&quot;font-size: 12px;&quot;&gt;&lt;/font&gt;&lt;/span&gt;&lt;span style=&quot;font-size: 12px;&quot;&gt;- LongitudinalAction&lt;br style=&quot;font-size: 12px;&quot;&gt;&lt;/span&gt;&lt;span style=&quot;font-size: 12px;&quot;&gt;- LateralAction&lt;br style=&quot;font-size: 12px;&quot;&gt;- VisibiltyAction&lt;br style=&quot;font-size: 12px;&quot;&gt;&lt;/span&gt;&lt;span style=&quot;font-size: 12px;&quot;&gt;- ActivateControllerAction&lt;br style=&quot;font-size: 12px;&quot;&gt;...&lt;br style=&quot;font-size: 12px;&quot;&gt;&lt;/span&gt;&lt;span style=&quot;font-size: 12px;&quot;&gt;see Standard (v1.1)&lt;/span&gt;&lt;span style=&quot;background-color: initial; font-size: 12px;&quot;&gt;&lt;font style=&quot;font-size: 12px;&quot;&gt;&lt;br style=&quot;font-size: 12px;&quot;&gt;&lt;/font&gt;&lt;/span&gt;&lt;br style=&quot;font-size: 12px;&quot;&gt;&lt;/font&gt;" style="html=1;fontColor=default;fillColor=default;align=left;verticalAlign=top;spacingLeft=1;fontSize=12;" parent="1" vertex="1">
                    <mxGeometry x="398" y="299.67" width="172" height="120.33" as="geometry"/>
                </mxCell>
            </root>
        </mxGraphModel>
    </diagram>
    <diagram name="Conditions" id="sBtL1u4i-NKjzrJMg1qG">
        <mxGraphModel dx="1418" dy="828" grid="1" gridSize="10" guides="1" tooltips="1" connect="1" arrows="1" fold="1" page="1" pageScale="1" pageWidth="827" pageHeight="1169" math="0" shadow="0">
            <root>
                <mxCell id="i96NIvtU7eGBBkqEIW9d-0"/>
                <mxCell id="i96NIvtU7eGBBkqEIW9d-1" parent="i96NIvtU7eGBBkqEIW9d-0"/>
                <mxCell id="i96NIvtU7eGBBkqEIW9d-5" value="" style="endArrow=diamondThin;endFill=1;endSize=24;html=1;rounded=0;fontFamily=Times New Roman;fontColor=default;entryX=1;entryY=0.5;entryDx=0;entryDy=0;exitX=-0.005;exitY=0.151;exitDx=0;exitDy=0;exitPerimeter=0;" parent="i96NIvtU7eGBBkqEIW9d-1" source="i96NIvtU7eGBBkqEIW9d-6" target="i96NIvtU7eGBBkqEIW9d-20" edge="1">
                    <mxGeometry width="160" relative="1" as="geometry">
                        <mxPoint x="514" y="80" as="sourcePoint"/>
                        <mxPoint x="414" y="198" as="targetPoint"/>
                        <Array as="points">
                            <mxPoint x="385" y="80"/>
                            <mxPoint x="385" y="183"/>
                        </Array>
                    </mxGeometry>
                </mxCell>
                <mxCell id="i96NIvtU7eGBBkqEIW9d-6" value="&lt;p style=&quot;margin:0px;margin-top:6px;text-align:center;&quot;&gt;&lt;b&gt;OpenScenarioEngine::FooCondition&lt;/b&gt;&lt;/p&gt;&lt;hr&gt;&lt;p style=&quot;margin:0px;margin-left:8px;&quot;&gt;&lt;br&gt;&lt;/p&gt;" style="align=left;overflow=fill;html=1;dropTarget=0;fontFamily=Times New Roman;labelBackgroundColor=none;fillColor=default;" parent="i96NIvtU7eGBBkqEIW9d-1" vertex="1">
                    <mxGeometry x="604" y="40" width="200" height="270" as="geometry"/>
                </mxCell>
                <mxCell id="i96NIvtU7eGBBkqEIW9d-11" value="FooCondition&#10;(*_impl.[cpp|h])" style="swimlane;fontStyle=0;childLayout=stackLayout;horizontal=1;startSize=36;fillColor=default;horizontalStack=0;resizeParent=1;resizeParentMax=0;resizeLast=0;collapsible=1;marginBottom=0;fontColor=default;" parent="i96NIvtU7eGBBkqEIW9d-1" vertex="1">
                    <mxGeometry x="619" y="80" width="170" height="62" as="geometry">
                        <mxRectangle x="90" y="240" width="100" height="30" as="alternateBounds"/>
                    </mxGeometry>
                </mxCell>
                <mxCell id="i96NIvtU7eGBBkqEIW9d-12" value="+ bool IsSatisfied()" style="text;strokeColor=none;fillColor=#e1d5e7;align=left;verticalAlign=top;spacingLeft=4;spacingRight=4;overflow=hidden;rotatable=0;points=[[0,0.5],[1,0.5]];portConstraint=eastwest;" parent="i96NIvtU7eGBBkqEIW9d-11" vertex="1">
                    <mxGeometry y="36" width="170" height="26" as="geometry"/>
                </mxCell>
                <mxCell id="i96NIvtU7eGBBkqEIW9d-13" value="" style="endArrow=block;dashed=1;endFill=0;endSize=12;html=1;rounded=0;fontFamily=Times New Roman;fontColor=default;entryX=0.5;entryY=0;entryDx=0;entryDy=0;exitX=0.499;exitY=1.044;exitDx=0;exitDy=0;exitPerimeter=0;" parent="i96NIvtU7eGBBkqEIW9d-1" source="i96NIvtU7eGBBkqEIW9d-12" target="_NeBPrMCjQoX1aFWDVJn-55" edge="1">
                    <mxGeometry width="160" relative="1" as="geometry">
                        <mxPoint x="694" y="90" as="sourcePoint"/>
                        <mxPoint x="723.9999999999998" y="166" as="targetPoint"/>
                    </mxGeometry>
                </mxCell>
                <mxCell id="i96NIvtU7eGBBkqEIW9d-14" value="&lt;span style=&quot;background-color: initial; font-size: 12px;&quot;&gt;Separation of Values&lt;br style=&quot;font-size: 12px;&quot;&gt;&lt;/span&gt;&lt;span style=&quot;background-color: initial;&quot;&gt;&lt;font style=&quot;font-size: 10px;&quot;&gt;[for each param]&lt;br&gt;&lt;/font&gt;&lt;br&gt;&lt;/span&gt;&lt;font style=&quot;font-size: 10px;&quot;&gt;&lt;span style=&quot;background-color: initial;&quot;&gt;ConvertScenarioSomeValue&lt;br&gt;&lt;/span&gt;&lt;span style=&quot;background-color: initial;&quot;&gt;ConvertScenarioPosition&lt;/span&gt;&lt;/font&gt;&lt;span style=&quot;background-color: initial;&quot;&gt;&lt;br&gt;&lt;/span&gt;" style="rounded=1;whiteSpace=wrap;html=1;fontFamily=Helvetica;fontColor=#000099;fontStyle=0;strokeColor=#000099;fontSize=12;points=[[0,0,0,0,0],[0,0.36,0,0,0],[0,0.5,0,0,0],[0,0.74,0,0,0],[0,1,0,0,0],[0.25,0,0,0,0],[0.25,1,0,0,0],[0.5,0,0,0,0],[0.5,1,0,0,0],[0.75,0,0,0,0],[0.75,1,0,0,0],[1,0,0,0,0],[1,0.36,0,0,0],[1,0.5,0,0,0],[1,0.76,0,0,0],[1,1,0,0,0]];arcSize=11;" parent="i96NIvtU7eGBBkqEIW9d-1" vertex="1">
                    <mxGeometry x="419" y="100" width="140" height="80" as="geometry"/>
                </mxCell>
                <mxCell id="i96NIvtU7eGBBkqEIW9d-19" value="FooCondition" style="swimlane;fontStyle=1;align=center;verticalAlign=top;childLayout=stackLayout;horizontal=1;startSize=30;horizontalStack=0;resizeParent=1;resizeParentMax=0;resizeLast=0;collapsible=1;marginBottom=0;labelBackgroundColor=none;strokeColor=#000000;fontFamily=Helvetica;fontColor=#000000;" parent="i96NIvtU7eGBBkqEIW9d-1" vertex="1">
                    <mxGeometry x="24" y="140" width="330" height="168" as="geometry"/>
                </mxCell>
                <mxCell id="i96NIvtU7eGBBkqEIW9d-20" value="- impl_: OpenScenarioEngine::FooConditionBase*" style="text;strokeColor=none;fillColor=#006666;align=left;verticalAlign=top;spacingLeft=4;spacingRight=4;overflow=hidden;rotatable=0;points=[[0,0.5],[1,0.5]];portConstraint=eastwest;fontFamily=Helvetica;fontColor=#FFFFFF;fontStyle=1;labelBackgroundColor=none;" parent="i96NIvtU7eGBBkqEIW9d-19" vertex="1">
                    <mxGeometry y="30" width="330" height="26" as="geometry"/>
                </mxCell>
                <mxCell id="_NeBPrMCjQoX1aFWDVJn-20" value="- fooCondition_: NET_ASAM_OPENSCENARIO::IFooCondition*" style="text;strokeColor=#3700CC;fillColor=#6a00ff;align=left;verticalAlign=top;spacingLeft=4;spacingRight=4;overflow=hidden;rotatable=0;points=[[0,0.5],[1,0.5]];portConstraint=eastwest;fontFamily=Helvetica;fontColor=#ffffff;fontSize=11;" parent="i96NIvtU7eGBBkqEIW9d-19" vertex="1">
                    <mxGeometry y="56" width="330" height="26" as="geometry"/>
                </mxCell>
                <mxCell id="_NeBPrMCjQoX1aFWDVJn-21" value="- triggeringEntity_: string" style="text;strokeColor=#d79b00;fillColor=#ffe6cc;align=left;verticalAlign=top;spacingLeft=4;spacingRight=4;overflow=hidden;rotatable=0;points=[[0,0.5],[1,0.5]];portConstraint=eastwest;fontFamily=Helvetica;fontStyle=0;" parent="i96NIvtU7eGBBkqEIW9d-19" vertex="1">
                    <mxGeometry y="82" width="330" height="26" as="geometry"/>
                </mxCell>
                <mxCell id="i96NIvtU7eGBBkqEIW9d-21" value="- entityBroker_: EntityBroker*" style="text;strokeColor=#d79b00;fillColor=#ffe6cc;align=left;verticalAlign=top;spacingLeft=4;spacingRight=4;overflow=hidden;rotatable=0;points=[[0,0.5],[1,0.5]];portConstraint=eastwest;fontFamily=Helvetica;fontStyle=0;" parent="i96NIvtU7eGBBkqEIW9d-19" vertex="1">
                    <mxGeometry y="108" width="330" height="26" as="geometry"/>
                </mxCell>
                <mxCell id="i96NIvtU7eGBBkqEIW9d-22" value="" style="line;strokeWidth=1;fillColor=none;align=left;verticalAlign=middle;spacingTop=-1;spacingLeft=3;spacingRight=3;rotatable=0;labelPosition=right;points=[];portConstraint=eastwest;strokeColor=inherit;labelBackgroundColor=none;fontFamily=Helvetica;fontColor=#4D4D4D;" parent="i96NIvtU7eGBBkqEIW9d-19" vertex="1">
                    <mxGeometry y="134" width="330" height="8" as="geometry"/>
                </mxCell>
                <mxCell id="i96NIvtU7eGBBkqEIW9d-24" value="- tick() → calls impl_-&gt;IsSatisfied()" style="text;strokeColor=none;fillColor=#e1d5e7;align=left;verticalAlign=top;spacingLeft=4;spacingRight=4;overflow=hidden;rotatable=0;points=[[0,0.5],[1,0.5]];portConstraint=eastwest;fontFamily=Helvetica;" parent="i96NIvtU7eGBBkqEIW9d-19" vertex="1">
                    <mxGeometry y="142" width="330" height="26" as="geometry"/>
                </mxCell>
                <mxCell id="_NeBPrMCjQoX1aFWDVJn-22" value="yase::ActionNode" style="swimlane;fontStyle=0;align=center;verticalAlign=top;childLayout=stackLayout;horizontal=1;startSize=30;horizontalStack=0;resizeParent=1;resizeParentMax=0;resizeLast=0;collapsible=1;marginBottom=0;labelBackgroundColor=none;strokeColor=#000000;fontFamily=Helvetica;fontColor=#000000;" parent="i96NIvtU7eGBBkqEIW9d-1" vertex="1">
                    <mxGeometry x="24" y="60" width="330" height="56" as="geometry"/>
                </mxCell>
                <mxCell id="_NeBPrMCjQoX1aFWDVJn-28" value="+ executeTick() → calls FooCondition::tick()" style="text;strokeColor=none;fillColor=#e1d5e7;align=left;verticalAlign=top;spacingLeft=4;spacingRight=4;overflow=hidden;rotatable=0;points=[[0,0.5],[1,0.5]];portConstraint=eastwest;fontFamily=Helvetica;fontStyle=0;labelBackgroundColor=none;" parent="_NeBPrMCjQoX1aFWDVJn-22" vertex="1">
                    <mxGeometry y="30" width="330" height="26" as="geometry"/>
                </mxCell>
                <mxCell id="_NeBPrMCjQoX1aFWDVJn-30" value="" style="endArrow=block;dashed=1;endFill=0;endSize=12;html=1;rounded=0;fontFamily=Times New Roman;fontColor=default;" parent="i96NIvtU7eGBBkqEIW9d-1" source="i96NIvtU7eGBBkqEIW9d-19" target="_NeBPrMCjQoX1aFWDVJn-28" edge="1">
                    <mxGeometry width="160" relative="1" as="geometry">
                        <mxPoint x="94" y="139" as="sourcePoint"/>
                        <mxPoint x="607" y="281" as="targetPoint"/>
                    </mxGeometry>
                </mxCell>
                <mxCell id="_NeBPrMCjQoX1aFWDVJn-34" value="" style="endArrow=none;html=1;rounded=0;fontSize=5;fontColor=default;strokeColor=#000099;entryX=1;entryY=0.5;entryDx=0;entryDy=0;entryPerimeter=0;exitX=0;exitY=0.5;exitDx=0;exitDy=0;exitPerimeter=0;" parent="i96NIvtU7eGBBkqEIW9d-1" source="i96NIvtU7eGBBkqEIW9d-14" target="i96NIvtU7eGBBkqEIW9d-14" edge="1">
                    <mxGeometry width="50" height="50" relative="1" as="geometry">
                        <mxPoint x="364" y="270" as="sourcePoint"/>
                        <mxPoint x="464" y="310" as="targetPoint"/>
                    </mxGeometry>
                </mxCell>
                <mxCell id="_NeBPrMCjQoX1aFWDVJn-50" value="Interfaces&#10;(Example)" style="swimlane;fontStyle=0;align=center;verticalAlign=top;childLayout=stackLayout;horizontal=1;startSize=40;horizontalStack=0;resizeParent=1;resizeParentMax=0;resizeLast=0;collapsible=1;marginBottom=0;labelBackgroundColor=none;strokeColor=#000000;fontFamily=Helvetica;fontColor=#000000;" parent="i96NIvtU7eGBBkqEIW9d-1" vertex="1">
                    <mxGeometry x="404" y="320" width="170" height="66" as="geometry"/>
                </mxCell>
                <mxCell id="_NeBPrMCjQoX1aFWDVJn-51" value="+ IEnvironment* environment" style="text;align=left;verticalAlign=top;spacingLeft=4;spacingRight=4;overflow=hidden;rotatable=0;points=[[0,0.5],[1,0.5]];portConstraint=eastwest;fontFamily=Helvetica;fontStyle=0;labelBackgroundColor=none;" parent="_NeBPrMCjQoX1aFWDVJn-50" vertex="1">
                    <mxGeometry y="40" width="170" height="26" as="geometry"/>
                </mxCell>
                <mxCell id="_NeBPrMCjQoX1aFWDVJn-55" value="FooConditionBase&#10;(*_base.h)" style="swimlane;fontStyle=0;align=center;verticalAlign=top;childLayout=stackLayout;horizontal=1;startSize=40;horizontalStack=0;resizeParent=1;resizeParentMax=0;resizeLast=0;collapsible=1;marginBottom=0;labelBackgroundColor=none;fontFamily=Helvetica;fillColor=none;fontColor=default;" parent="i96NIvtU7eGBBkqEIW9d-1" vertex="1">
                    <mxGeometry x="619" y="170" width="170" height="126" as="geometry"/>
                </mxCell>
                <mxCell id="_NeBPrMCjQoX1aFWDVJn-56" value="+ values: Values" style="text;align=left;verticalAlign=top;spacingLeft=4;spacingRight=4;overflow=hidden;rotatable=0;points=[[0,0.5],[1,0.5]];portConstraint=eastwest;fontFamily=Helvetica;fontStyle=0;labelBackgroundColor=none;fillColor=#6a00ff;strokeColor=#3700CC;fontColor=#ffffff;" parent="_NeBPrMCjQoX1aFWDVJn-55" vertex="1">
                    <mxGeometry y="40" width="170" height="26" as="geometry"/>
                </mxCell>
                <mxCell id="_NeBPrMCjQoX1aFWDVJn-58" value="+ mantle: Interfaces" style="text;align=left;verticalAlign=top;spacingLeft=4;spacingRight=4;overflow=hidden;rotatable=0;points=[[0,0.5],[1,0.5]];portConstraint=eastwest;fontFamily=Helvetica;fontStyle=0;" parent="_NeBPrMCjQoX1aFWDVJn-55" vertex="1">
                    <mxGeometry y="66" width="170" height="26" as="geometry"/>
                </mxCell>
                <mxCell id="_NeBPrMCjQoX1aFWDVJn-60" value="" style="line;strokeWidth=1;fillColor=none;align=left;verticalAlign=middle;spacingTop=-1;spacingLeft=3;spacingRight=3;rotatable=0;labelPosition=right;points=[];portConstraint=eastwest;strokeColor=inherit;labelBackgroundColor=none;fontFamily=Helvetica;fontColor=#4D4D4D;" parent="_NeBPrMCjQoX1aFWDVJn-55" vertex="1">
                    <mxGeometry y="92" width="170" height="8" as="geometry"/>
                </mxCell>
                <mxCell id="_NeBPrMCjQoX1aFWDVJn-61" value="+ bool IsSatisfied() = 0" style="text;align=left;verticalAlign=top;spacingLeft=4;spacingRight=4;overflow=hidden;rotatable=0;points=[[0,0.5],[1,0.5]];portConstraint=eastwest;fontFamily=Helvetica;fillColor=#e1d5e7;strokeColor=none;" parent="_NeBPrMCjQoX1aFWDVJn-55" vertex="1">
                    <mxGeometry y="100" width="170" height="26" as="geometry"/>
                </mxCell>
                <mxCell id="_NeBPrMCjQoX1aFWDVJn-62" value="" style="endArrow=classic;html=1;rounded=0;strokeColor=#000099;fontSize=11;fontColor=default;exitX=1;exitY=0.5;exitDx=0;exitDy=0;strokeWidth=3;entryX=-0.004;entryY=0.205;entryDx=0;entryDy=0;entryPerimeter=0;" parent="i96NIvtU7eGBBkqEIW9d-1" source="_NeBPrMCjQoX1aFWDVJn-20" edge="1">
                    <mxGeometry width="50" height="50" relative="1" as="geometry">
                        <mxPoint x="255" y="450" as="sourcePoint"/>
                        <mxPoint x="403.31999999999994" y="208.8599999999999" as="targetPoint"/>
                    </mxGeometry>
                </mxCell>
                <mxCell id="_NeBPrMCjQoX1aFWDVJn-63" value="" style="endArrow=classic;html=1;rounded=0;strokeColor=#000099;fontSize=11;fontColor=default;strokeWidth=3;" parent="i96NIvtU7eGBBkqEIW9d-1" target="_NeBPrMCjQoX1aFWDVJn-56" edge="1">
                    <mxGeometry width="50" height="50" relative="1" as="geometry">
                        <mxPoint x="574" y="223" as="sourcePoint"/>
                        <mxPoint x="405" y="219" as="targetPoint"/>
                    </mxGeometry>
                </mxCell>
                <mxCell id="_NeBPrMCjQoX1aFWDVJn-64" value="" style="endArrow=none;dashed=1;html=1;rounded=0;strokeColor=#000099;strokeWidth=2;fontSize=11;fontColor=default;entryX=0.5;entryY=1;entryDx=0;entryDy=0;entryPerimeter=0;exitX=0.5;exitY=0;exitDx=0;exitDy=0;dashPattern=1 1;" parent="i96NIvtU7eGBBkqEIW9d-1" target="i96NIvtU7eGBBkqEIW9d-14" edge="1">
                    <mxGeometry width="50" height="50" relative="1" as="geometry">
                        <mxPoint x="489" y="190" as="sourcePoint"/>
                        <mxPoint x="534" y="170" as="targetPoint"/>
                    </mxGeometry>
                </mxCell>
                <mxCell id="_NeBPrMCjQoX1aFWDVJn-65" value="&lt;span style=&quot;background-color: initial; font-size: 12px;&quot;&gt;Separation of Interaction&lt;/span&gt;&lt;span style=&quot;background-color: initial;&quot;&gt;&lt;br&gt;&lt;/span&gt;" style="rounded=1;whiteSpace=wrap;html=1;fontFamily=Helvetica;fontColor=#000000;fontStyle=0;strokeColor=#000000;fontSize=12;points=[[0,0,0,0,0],[0,0.36,0,0,0],[0,0.5,0,0,0],[0,0.74,0,0,0],[0,1,0,0,0],[0.25,0,0,0,0],[0.25,1,0,0,0],[0.5,0,0,0,0],[0.5,1,0,0,0],[0.75,0,0,0,0],[0.75,1,0,0,0],[1,0,0,0,0],[1,0.36,0,0,0],[1,0.5,0,0,0],[1,0.76,0,0,0],[1,1,0,0,0]];arcSize=23;" parent="i96NIvtU7eGBBkqEIW9d-1" vertex="1">
                    <mxGeometry x="419" y="40" width="140" height="30" as="geometry"/>
                </mxCell>
                <mxCell id="_NeBPrMCjQoX1aFWDVJn-66" value="" style="endArrow=none;dashed=1;html=1;rounded=0;strokeColor=#000000;strokeWidth=2;fontSize=11;fontColor=default;entryX=0.5;entryY=1;entryDx=0;entryDy=0;entryPerimeter=0;dashPattern=1 1;" parent="i96NIvtU7eGBBkqEIW9d-1" target="_NeBPrMCjQoX1aFWDVJn-65" edge="1">
                    <mxGeometry width="50" height="50" relative="1" as="geometry">
                        <mxPoint x="489" y="80" as="sourcePoint"/>
                        <mxPoint x="499" y="190" as="targetPoint"/>
                    </mxGeometry>
                </mxCell>
                <mxCell id="_NeBPrMCjQoX1aFWDVJn-67" value="" style="endArrow=classic;html=1;rounded=0;strokeColor=#000000;fontSize=11;fontColor=default;strokeWidth=3;exitX=1.004;exitY=0.303;exitDx=0;exitDy=0;exitPerimeter=0;" parent="i96NIvtU7eGBBkqEIW9d-1" source="_NeBPrMCjQoX1aFWDVJn-50" target="_NeBPrMCjQoX1aFWDVJn-58" edge="1">
                    <mxGeometry width="50" height="50" relative="1" as="geometry">
                        <mxPoint x="565" y="307" as="sourcePoint"/>
                        <mxPoint x="595" y="250" as="targetPoint"/>
                        <Array as="points">
                            <mxPoint x="584" y="340"/>
                            <mxPoint x="584" y="250"/>
                        </Array>
                    </mxGeometry>
                </mxCell>
                <mxCell id="_NeBPrMCjQoX1aFWDVJn-73" value="" style="endArrow=classic;html=1;rounded=0;strokeColor=#000000;fontSize=11;fontColor=default;strokeWidth=3;entryX=0;entryY=0.25;entryDx=0;entryDy=0;dashed=1;dashPattern=1 1;exitX=1.002;exitY=0.284;exitDx=0;exitDy=0;exitPerimeter=0;" parent="i96NIvtU7eGBBkqEIW9d-1" source="i96NIvtU7eGBBkqEIW9d-22" target="_NeBPrMCjQoX1aFWDVJn-50" edge="1">
                    <mxGeometry width="50" height="50" relative="1" as="geometry">
                        <mxPoint x="368" y="323" as="sourcePoint"/>
                        <mxPoint x="413.31999999999994" y="218.8599999999999" as="targetPoint"/>
                        <Array as="points">
                            <mxPoint x="378" y="276"/>
                            <mxPoint x="379" y="337"/>
                        </Array>
                    </mxGeometry>
                </mxCell>
                <mxCell id="Vdn5tTlzCY6RwR6lyHCZ-0" value="Values&#10;(Example)" style="swimlane;fontStyle=0;align=center;verticalAlign=top;childLayout=stackLayout;horizontal=1;startSize=40;horizontalStack=0;resizeParent=1;resizeParentMax=0;resizeLast=0;collapsible=1;marginBottom=0;labelBackgroundColor=none;strokeColor=#3700CC;fontFamily=Helvetica;fontColor=#ffffff;fillColor=#6a00ff;" parent="i96NIvtU7eGBBkqEIW9d-1" vertex="1">
                    <mxGeometry x="404" y="192" width="170" height="118" as="geometry"/>
                </mxCell>
                <mxCell id="sa4vqr17NbCQPoNLjhpF-0" value="+ triggeringEntity: string" style="text;align=left;verticalAlign=top;spacingLeft=4;spacingRight=4;overflow=hidden;rotatable=0;points=[[0,0.5],[1,0.5]];portConstraint=eastwest;fontFamily=Helvetica;fontStyle=0;labelBackgroundColor=none;fillColor=#ffe6cc;strokeColor=#d79b00;" parent="Vdn5tTlzCY6RwR6lyHCZ-0" vertex="1">
                    <mxGeometry y="40" width="170" height="26" as="geometry"/>
                </mxCell>
                <mxCell id="Vdn5tTlzCY6RwR6lyHCZ-1" value="+ somevalue: double " style="text;align=left;verticalAlign=top;spacingLeft=4;spacingRight=4;overflow=hidden;rotatable=0;points=[[0,0.5],[1,0.5]];portConstraint=eastwest;fontFamily=Helvetica;fontStyle=0;labelBackgroundColor=none;" parent="Vdn5tTlzCY6RwR6lyHCZ-0" vertex="1">
                    <mxGeometry y="66" width="170" height="26" as="geometry"/>
                </mxCell>
                <mxCell id="Vdn5tTlzCY6RwR6lyHCZ-2" value="+ position: mantle_api::Pose " style="text;align=left;verticalAlign=top;spacingLeft=4;spacingRight=4;overflow=hidden;rotatable=0;points=[[0,0.5],[1,0.5]];portConstraint=eastwest;fontFamily=Helvetica;fontStyle=0" parent="Vdn5tTlzCY6RwR6lyHCZ-0" vertex="1">
                    <mxGeometry y="92" width="170" height="26" as="geometry"/>
                </mxCell>
            </root>
        </mxGraphModel>
    </diagram>
    <diagram id="t34XW_dtYt7BWcG3_6mj" name="Actions">
        <mxGraphModel dx="1418" dy="828" grid="1" gridSize="10" guides="1" tooltips="1" connect="1" arrows="1" fold="1" page="1" pageScale="1" pageWidth="827" pageHeight="1169" math="0" shadow="0">
            <root>
                <mxCell id="0"/>
                <mxCell id="1" parent="0"/>
                <mxCell id="q9uyw5Tbr0GM-SY7Co3B-1" value="" style="endArrow=diamondThin;endFill=1;endSize=24;html=1;rounded=0;fontFamily=Times New Roman;fontColor=default;entryX=1;entryY=0.5;entryDx=0;entryDy=0;exitX=-0.005;exitY=0.151;exitDx=0;exitDy=0;exitPerimeter=0;" parent="1" source="q9uyw5Tbr0GM-SY7Co3B-2" target="q9uyw5Tbr0GM-SY7Co3B-8" edge="1">
                    <mxGeometry width="160" relative="1" as="geometry">
                        <mxPoint x="514" y="80" as="sourcePoint"/>
                        <mxPoint x="414" y="198" as="targetPoint"/>
                        <Array as="points">
                            <mxPoint x="385" y="80"/>
                            <mxPoint x="385" y="183"/>
                        </Array>
                    </mxGeometry>
                </mxCell>
                <mxCell id="q9uyw5Tbr0GM-SY7Co3B-2" value="&lt;p style=&quot;margin:0px;margin-top:6px;text-align:center;&quot;&gt;&lt;b&gt;OpenScenarioEngine::FooAction&lt;/b&gt;&lt;/p&gt;&lt;hr&gt;&lt;p style=&quot;margin:0px;margin-left:8px;&quot;&gt;&lt;br&gt;&lt;/p&gt;" style="align=left;overflow=fill;html=1;dropTarget=0;fontFamily=Times New Roman;labelBackgroundColor=none;fillColor=default;" parent="1" vertex="1">
                    <mxGeometry x="604" y="40" width="200" height="270" as="geometry"/>
                </mxCell>
                <mxCell id="q9uyw5Tbr0GM-SY7Co3B-3" value="FooAction&#10;(*_impl.[cpp|h])" style="swimlane;fontStyle=0;childLayout=stackLayout;horizontal=1;startSize=36;fillColor=default;horizontalStack=0;resizeParent=1;resizeParentMax=0;resizeLast=0;collapsible=1;marginBottom=0;fontColor=default;" parent="1" vertex="1">
                    <mxGeometry x="619" y="80" width="170" height="62" as="geometry">
                        <mxRectangle x="90" y="240" width="100" height="30" as="alternateBounds"/>
                    </mxGeometry>
                </mxCell>
                <mxCell id="q9uyw5Tbr0GM-SY7Co3B-4" value="+ bool Step()" style="text;strokeColor=none;fillColor=#e1d5e7;align=left;verticalAlign=top;spacingLeft=4;spacingRight=4;overflow=hidden;rotatable=0;points=[[0,0.5],[1,0.5]];portConstraint=eastwest;" parent="q9uyw5Tbr0GM-SY7Co3B-3" vertex="1">
                    <mxGeometry y="36" width="170" height="26" as="geometry"/>
                </mxCell>
                <mxCell id="q9uyw5Tbr0GM-SY7Co3B-5" value="" style="endArrow=block;dashed=1;endFill=0;endSize=12;html=1;rounded=0;fontFamily=Times New Roman;fontColor=default;entryX=0.5;entryY=0;entryDx=0;entryDy=0;exitX=0.499;exitY=1.044;exitDx=0;exitDy=0;exitPerimeter=0;" parent="1" source="q9uyw5Tbr0GM-SY7Co3B-4" target="q9uyw5Tbr0GM-SY7Co3B-18" edge="1">
                    <mxGeometry width="160" relative="1" as="geometry">
                        <mxPoint x="694" y="90" as="sourcePoint"/>
                        <mxPoint x="723.9999999999998" y="166" as="targetPoint"/>
                    </mxGeometry>
                </mxCell>
                <mxCell id="q9uyw5Tbr0GM-SY7Co3B-6" value="&lt;span style=&quot;background-color: initial; font-size: 12px;&quot;&gt;Separation of Values&lt;br style=&quot;font-size: 12px;&quot;&gt;&lt;/span&gt;&lt;span style=&quot;background-color: initial;&quot;&gt;&lt;font style=&quot;font-size: 10px;&quot;&gt;[for each param]&lt;br&gt;&lt;/font&gt;&lt;br&gt;&lt;/span&gt;&lt;font style=&quot;font-size: 10px;&quot;&gt;&lt;span style=&quot;background-color: initial;&quot;&gt;ConvertScenarioOtherValue&lt;br&gt;&lt;/span&gt;&lt;span style=&quot;background-color: initial;&quot;&gt;ConvertScenarioPosition&lt;/span&gt;&lt;/font&gt;&lt;span style=&quot;background-color: initial;&quot;&gt;&lt;br&gt;&lt;/span&gt;" style="rounded=1;whiteSpace=wrap;html=1;fontFamily=Helvetica;fontColor=#000099;fontStyle=0;strokeColor=#000099;fontSize=12;points=[[0,0,0,0,0],[0,0.36,0,0,0],[0,0.5,0,0,0],[0,0.74,0,0,0],[0,1,0,0,0],[0.25,0,0,0,0],[0.25,1,0,0,0],[0.5,0,0,0,0],[0.5,1,0,0,0],[0.75,0,0,0,0],[0.75,1,0,0,0],[1,0,0,0,0],[1,0.36,0,0,0],[1,0.5,0,0,0],[1,0.76,0,0,0],[1,1,0,0,0]];arcSize=11;" parent="1" vertex="1">
                    <mxGeometry x="419" y="100" width="140" height="80" as="geometry"/>
                </mxCell>
                <mxCell id="q9uyw5Tbr0GM-SY7Co3B-7" value="FooAction" style="swimlane;fontStyle=1;align=center;verticalAlign=top;childLayout=stackLayout;horizontal=1;startSize=30;horizontalStack=0;resizeParent=1;resizeParentMax=0;resizeLast=0;collapsible=1;marginBottom=0;labelBackgroundColor=none;strokeColor=#000000;fontFamily=Helvetica;fontColor=#000000;" parent="1" vertex="1">
                    <mxGeometry x="24" y="140" width="330" height="116" as="geometry"/>
                </mxCell>
                <mxCell id="q9uyw5Tbr0GM-SY7Co3B-8" value="- impl_: OpenScenarioEngine::FooActionBase*" style="text;strokeColor=none;fillColor=#006666;align=left;verticalAlign=top;spacingLeft=4;spacingRight=4;overflow=hidden;rotatable=0;points=[[0,0.5],[1,0.5]];portConstraint=eastwest;fontFamily=Helvetica;fontColor=#FFFFFF;fontStyle=1;labelBackgroundColor=none;" parent="q9uyw5Tbr0GM-SY7Co3B-7" vertex="1">
                    <mxGeometry y="30" width="330" height="26" as="geometry"/>
                </mxCell>
                <mxCell id="q9uyw5Tbr0GM-SY7Co3B-9" value="- fooAction_: NET_ASAM_OPENSCENARIO::IFooAction*" style="text;strokeColor=#3700CC;fillColor=#6a00ff;align=left;verticalAlign=top;spacingLeft=4;spacingRight=4;overflow=hidden;rotatable=0;points=[[0,0.5],[1,0.5]];portConstraint=eastwest;fontFamily=Helvetica;fontColor=#ffffff;fontSize=11;" parent="q9uyw5Tbr0GM-SY7Co3B-7" vertex="1">
                    <mxGeometry y="56" width="330" height="26" as="geometry"/>
                </mxCell>
                <mxCell id="q9uyw5Tbr0GM-SY7Co3B-10" value="" style="line;strokeWidth=1;fillColor=none;align=left;verticalAlign=middle;spacingTop=-1;spacingLeft=3;spacingRight=3;rotatable=0;labelPosition=right;points=[];portConstraint=eastwest;strokeColor=inherit;labelBackgroundColor=none;fontFamily=Helvetica;fontColor=#4D4D4D;" parent="q9uyw5Tbr0GM-SY7Co3B-7" vertex="1">
                    <mxGeometry y="82" width="330" height="8" as="geometry"/>
                </mxCell>
                <mxCell id="q9uyw5Tbr0GM-SY7Co3B-11" value="- tick() → calls impl_-&gt;Step()" style="text;strokeColor=none;fillColor=#e1d5e7;align=left;verticalAlign=top;spacingLeft=4;spacingRight=4;overflow=hidden;rotatable=0;points=[[0,0.5],[1,0.5]];portConstraint=eastwest;fontFamily=Helvetica;" parent="q9uyw5Tbr0GM-SY7Co3B-7" vertex="1">
                    <mxGeometry y="90" width="330" height="26" as="geometry"/>
                </mxCell>
                <mxCell id="q9uyw5Tbr0GM-SY7Co3B-12" value="yase::ActionNode" style="swimlane;fontStyle=0;align=center;verticalAlign=top;childLayout=stackLayout;horizontal=1;startSize=30;horizontalStack=0;resizeParent=1;resizeParentMax=0;resizeLast=0;collapsible=1;marginBottom=0;labelBackgroundColor=none;strokeColor=#000000;fontFamily=Helvetica;fontColor=#000000;" parent="1" vertex="1">
                    <mxGeometry x="24" y="60" width="330" height="56" as="geometry"/>
                </mxCell>
                <mxCell id="q9uyw5Tbr0GM-SY7Co3B-13" value="+ executeTick() → calls FooAction::tick()" style="text;strokeColor=none;fillColor=#e1d5e7;align=left;verticalAlign=top;spacingLeft=4;spacingRight=4;overflow=hidden;rotatable=0;points=[[0,0.5],[1,0.5]];portConstraint=eastwest;fontFamily=Helvetica;fontStyle=0;labelBackgroundColor=none;" parent="q9uyw5Tbr0GM-SY7Co3B-12" vertex="1">
                    <mxGeometry y="30" width="330" height="26" as="geometry"/>
                </mxCell>
                <mxCell id="q9uyw5Tbr0GM-SY7Co3B-14" value="" style="endArrow=block;dashed=1;endFill=0;endSize=12;html=1;rounded=0;fontFamily=Times New Roman;fontColor=default;" parent="1" source="q9uyw5Tbr0GM-SY7Co3B-7" target="q9uyw5Tbr0GM-SY7Co3B-13" edge="1">
                    <mxGeometry width="160" relative="1" as="geometry">
                        <mxPoint x="94" y="139" as="sourcePoint"/>
                        <mxPoint x="607" y="281" as="targetPoint"/>
                    </mxGeometry>
                </mxCell>
                <mxCell id="q9uyw5Tbr0GM-SY7Co3B-15" value="" style="endArrow=none;html=1;rounded=0;fontSize=5;fontColor=default;strokeColor=#000099;entryX=1;entryY=0.5;entryDx=0;entryDy=0;entryPerimeter=0;exitX=0;exitY=0.5;exitDx=0;exitDy=0;exitPerimeter=0;" parent="1" source="q9uyw5Tbr0GM-SY7Co3B-6" target="q9uyw5Tbr0GM-SY7Co3B-6" edge="1">
                    <mxGeometry width="50" height="50" relative="1" as="geometry">
                        <mxPoint x="364" y="270" as="sourcePoint"/>
                        <mxPoint x="464" y="310" as="targetPoint"/>
                    </mxGeometry>
                </mxCell>
                <mxCell id="q9uyw5Tbr0GM-SY7Co3B-16" value="Interfaces&#10;(Example)" style="swimlane;fontStyle=0;align=center;verticalAlign=top;childLayout=stackLayout;horizontal=1;startSize=40;horizontalStack=0;resizeParent=1;resizeParentMax=0;resizeLast=0;collapsible=1;marginBottom=0;labelBackgroundColor=none;strokeColor=#000000;fontFamily=Helvetica;fontColor=#000000;" parent="1" vertex="1">
                    <mxGeometry x="404" y="320" width="170" height="66" as="geometry"/>
                </mxCell>
                <mxCell id="q9uyw5Tbr0GM-SY7Co3B-17" value="+ IEnvironment* environment" style="text;align=left;verticalAlign=top;spacingLeft=4;spacingRight=4;overflow=hidden;rotatable=0;points=[[0,0.5],[1,0.5]];portConstraint=eastwest;fontFamily=Helvetica;fontStyle=0;labelBackgroundColor=none;" parent="q9uyw5Tbr0GM-SY7Co3B-16" vertex="1">
                    <mxGeometry y="40" width="170" height="26" as="geometry"/>
                </mxCell>
                <mxCell id="q9uyw5Tbr0GM-SY7Co3B-18" value="FooActionBase&#10;(*_base.h)" style="swimlane;fontStyle=0;align=center;verticalAlign=top;childLayout=stackLayout;horizontal=1;startSize=40;horizontalStack=0;resizeParent=1;resizeParentMax=0;resizeLast=0;collapsible=1;marginBottom=0;labelBackgroundColor=none;fontFamily=Helvetica;fillColor=none;fontColor=default;" parent="1" vertex="1">
                    <mxGeometry x="619" y="170" width="170" height="126" as="geometry"/>
                </mxCell>
                <mxCell id="q9uyw5Tbr0GM-SY7Co3B-19" value="+ values: Values" style="text;align=left;verticalAlign=top;spacingLeft=4;spacingRight=4;overflow=hidden;rotatable=0;points=[[0,0.5],[1,0.5]];portConstraint=eastwest;fontFamily=Helvetica;fontStyle=0;labelBackgroundColor=none;fillColor=#6a00ff;strokeColor=#3700CC;fontColor=#ffffff;" parent="q9uyw5Tbr0GM-SY7Co3B-18" vertex="1">
                    <mxGeometry y="40" width="170" height="26" as="geometry"/>
                </mxCell>
                <mxCell id="q9uyw5Tbr0GM-SY7Co3B-20" value="+ mantle: Interfaces" style="text;align=left;verticalAlign=top;spacingLeft=4;spacingRight=4;overflow=hidden;rotatable=0;points=[[0,0.5],[1,0.5]];portConstraint=eastwest;fontFamily=Helvetica;fontStyle=0;" parent="q9uyw5Tbr0GM-SY7Co3B-18" vertex="1">
                    <mxGeometry y="66" width="170" height="26" as="geometry"/>
                </mxCell>
                <mxCell id="q9uyw5Tbr0GM-SY7Co3B-21" value="" style="line;strokeWidth=1;fillColor=none;align=left;verticalAlign=middle;spacingTop=-1;spacingLeft=3;spacingRight=3;rotatable=0;labelPosition=right;points=[];portConstraint=eastwest;strokeColor=inherit;labelBackgroundColor=none;fontFamily=Helvetica;fontColor=#4D4D4D;" parent="q9uyw5Tbr0GM-SY7Co3B-18" vertex="1">
                    <mxGeometry y="92" width="170" height="8" as="geometry"/>
                </mxCell>
                <mxCell id="q9uyw5Tbr0GM-SY7Co3B-22" value="+ bool IsStep() = 0" style="text;align=left;verticalAlign=top;spacingLeft=4;spacingRight=4;overflow=hidden;rotatable=0;points=[[0,0.5],[1,0.5]];portConstraint=eastwest;fontFamily=Helvetica;fillColor=#e1d5e7;strokeColor=none;" parent="q9uyw5Tbr0GM-SY7Co3B-18" vertex="1">
                    <mxGeometry y="100" width="170" height="26" as="geometry"/>
                </mxCell>
                <mxCell id="q9uyw5Tbr0GM-SY7Co3B-23" value="" style="endArrow=classic;html=1;rounded=0;strokeColor=#000099;fontSize=11;fontColor=default;exitX=1;exitY=0.5;exitDx=0;exitDy=0;strokeWidth=3;entryX=-0.004;entryY=0.205;entryDx=0;entryDy=0;entryPerimeter=0;" parent="1" source="q9uyw5Tbr0GM-SY7Co3B-9" edge="1">
                    <mxGeometry width="50" height="50" relative="1" as="geometry">
                        <mxPoint x="255" y="450" as="sourcePoint"/>
                        <mxPoint x="403.31999999999994" y="208.86000000000013" as="targetPoint"/>
                    </mxGeometry>
                </mxCell>
                <mxCell id="q9uyw5Tbr0GM-SY7Co3B-24" value="" style="endArrow=classic;html=1;rounded=0;strokeColor=#000099;fontSize=11;fontColor=default;strokeWidth=3;" parent="1" target="q9uyw5Tbr0GM-SY7Co3B-19" edge="1">
                    <mxGeometry width="50" height="50" relative="1" as="geometry">
                        <mxPoint x="573.9999999999998" y="223" as="sourcePoint"/>
                        <mxPoint x="405" y="219" as="targetPoint"/>
                    </mxGeometry>
                </mxCell>
                <mxCell id="q9uyw5Tbr0GM-SY7Co3B-25" value="" style="endArrow=none;dashed=1;html=1;rounded=0;strokeColor=#000099;strokeWidth=2;fontSize=11;fontColor=default;entryX=0.5;entryY=1;entryDx=0;entryDy=0;entryPerimeter=0;exitX=0.5;exitY=0;exitDx=0;exitDy=0;dashPattern=1 1;" parent="1" target="q9uyw5Tbr0GM-SY7Co3B-6" edge="1">
                    <mxGeometry width="50" height="50" relative="1" as="geometry">
                        <mxPoint x="488.9999999999998" y="190" as="sourcePoint"/>
                        <mxPoint x="534" y="170" as="targetPoint"/>
                    </mxGeometry>
                </mxCell>
                <mxCell id="q9uyw5Tbr0GM-SY7Co3B-26" value="&lt;span style=&quot;background-color: initial; font-size: 12px;&quot;&gt;Separation of Interaction&lt;/span&gt;&lt;span style=&quot;background-color: initial;&quot;&gt;&lt;br&gt;&lt;/span&gt;" style="rounded=1;whiteSpace=wrap;html=1;fontFamily=Helvetica;fontColor=#000000;fontStyle=0;strokeColor=#000000;fontSize=12;points=[[0,0,0,0,0],[0,0.36,0,0,0],[0,0.5,0,0,0],[0,0.74,0,0,0],[0,1,0,0,0],[0.25,0,0,0,0],[0.25,1,0,0,0],[0.5,0,0,0,0],[0.5,1,0,0,0],[0.75,0,0,0,0],[0.75,1,0,0,0],[1,0,0,0,0],[1,0.36,0,0,0],[1,0.5,0,0,0],[1,0.76,0,0,0],[1,1,0,0,0]];arcSize=23;" parent="1" vertex="1">
                    <mxGeometry x="419" y="40" width="140" height="30" as="geometry"/>
                </mxCell>
                <mxCell id="q9uyw5Tbr0GM-SY7Co3B-27" value="" style="endArrow=none;dashed=1;html=1;rounded=0;strokeColor=#000000;strokeWidth=2;fontSize=11;fontColor=default;entryX=0.5;entryY=1;entryDx=0;entryDy=0;entryPerimeter=0;dashPattern=1 1;" parent="1" target="q9uyw5Tbr0GM-SY7Co3B-26" edge="1">
                    <mxGeometry width="50" height="50" relative="1" as="geometry">
                        <mxPoint x="488.9999999999998" y="79.99999999999989" as="sourcePoint"/>
                        <mxPoint x="499" y="190" as="targetPoint"/>
                    </mxGeometry>
                </mxCell>
                <mxCell id="q9uyw5Tbr0GM-SY7Co3B-28" value="" style="endArrow=classic;html=1;rounded=0;strokeColor=#000000;fontSize=11;fontColor=default;strokeWidth=3;exitX=1.004;exitY=0.303;exitDx=0;exitDy=0;exitPerimeter=0;" parent="1" source="q9uyw5Tbr0GM-SY7Co3B-16" target="q9uyw5Tbr0GM-SY7Co3B-20" edge="1">
                    <mxGeometry width="50" height="50" relative="1" as="geometry">
                        <mxPoint x="565" y="307" as="sourcePoint"/>
                        <mxPoint x="595" y="250" as="targetPoint"/>
                        <Array as="points">
                            <mxPoint x="584" y="340"/>
                            <mxPoint x="584" y="250"/>
                        </Array>
                    </mxGeometry>
                </mxCell>
                <mxCell id="q9uyw5Tbr0GM-SY7Co3B-29" value="" style="endArrow=classic;html=1;rounded=0;strokeColor=#000000;fontSize=11;fontColor=default;strokeWidth=3;entryX=0;entryY=0.25;entryDx=0;entryDy=0;dashed=1;dashPattern=1 1;exitX=1.002;exitY=0.284;exitDx=0;exitDy=0;exitPerimeter=0;" parent="1" source="q9uyw5Tbr0GM-SY7Co3B-10" target="q9uyw5Tbr0GM-SY7Co3B-16" edge="1">
                    <mxGeometry width="50" height="50" relative="1" as="geometry">
                        <mxPoint x="368" y="323" as="sourcePoint"/>
                        <mxPoint x="413.31999999999994" y="218.8599999999999" as="targetPoint"/>
                        <Array as="points">
                            <mxPoint x="377" y="224"/>
                            <mxPoint x="377" y="337"/>
                        </Array>
                    </mxGeometry>
                </mxCell>
                <mxCell id="q9uyw5Tbr0GM-SY7Co3B-30" value="Values&#10;(Example)" style="swimlane;fontStyle=0;align=center;verticalAlign=top;childLayout=stackLayout;horizontal=1;startSize=40;horizontalStack=0;resizeParent=1;resizeParentMax=0;resizeLast=0;collapsible=1;marginBottom=0;labelBackgroundColor=none;strokeColor=#3700CC;fontFamily=Helvetica;fontColor=#ffffff;fillColor=#6a00ff;" parent="1" vertex="1">
                    <mxGeometry x="404" y="191" width="170" height="118" as="geometry"/>
                </mxCell>
                <mxCell id="q9uyw5Tbr0GM-SY7Co3B-31" value="+ othervalue: string" style="text;align=left;verticalAlign=top;spacingLeft=4;spacingRight=4;overflow=hidden;rotatable=0;points=[[0,0.5],[1,0.5]];portConstraint=eastwest;fontFamily=Helvetica;fontStyle=0" parent="q9uyw5Tbr0GM-SY7Co3B-30" vertex="1">
                    <mxGeometry y="40" width="170" height="26" as="geometry"/>
                </mxCell>
                <mxCell id="q9uyw5Tbr0GM-SY7Co3B-32" value="+ position: mantle_api::Pose " style="text;align=left;verticalAlign=top;spacingLeft=4;spacingRight=4;overflow=hidden;rotatable=0;points=[[0,0.5],[1,0.5]];portConstraint=eastwest;fontFamily=Helvetica;fontStyle=0" parent="q9uyw5Tbr0GM-SY7Co3B-30" vertex="1">
                    <mxGeometry y="66" width="170" height="26" as="geometry"/>
                </mxCell>
                <mxCell id="q9uyw5Tbr0GM-SY7Co3B-33" value="+ entities: vector&lt;Entities&gt;" style="text;align=left;verticalAlign=top;spacingLeft=4;spacingRight=4;overflow=hidden;rotatable=0;points=[[0,0.5],[1,0.5]];portConstraint=eastwest;fontFamily=Helvetica;fontStyle=0;fillColor=#ffe6cc;strokeColor=#d79b00;" parent="q9uyw5Tbr0GM-SY7Co3B-30" vertex="1">
                    <mxGeometry y="92" width="170" height="26" as="geometry"/>
                </mxCell>
            </root>
        </mxGraphModel>
    </diagram>
    <diagram id="iaASfqWBHH36Habww9MQ" name="TreeStructure">
        <mxGraphModel dx="1418" dy="828" grid="1" gridSize="10" guides="1" tooltips="1" connect="1" arrows="1" fold="1" page="1" pageScale="1" pageWidth="827" pageHeight="1169" math="0" shadow="0">
            <root>
                <mxCell id="0"/>
                <mxCell id="1" parent="0"/>
                <mxCell id="n4xtXgPW--38ujpiByuB-30" value="TrafficSignals" style="html=1;dropTarget=0;fontSize=12;fontColor=#000000;fillColor=default;verticalAlign=top;" parent="1" vertex="1">
                    <mxGeometry x="340" y="180" width="260" height="400" as="geometry"/>
                </mxCell>
                <mxCell id="n4xtXgPW--38ujpiByuB-31" value="" style="shape=module;jettyWidth=8;jettyHeight=4;fontSize=8;fontColor=#000000;fillColor=default;" parent="n4xtXgPW--38ujpiByuB-30" vertex="1">
                    <mxGeometry x="1" width="20" height="20" relative="1" as="geometry">
                        <mxPoint x="-27" y="7" as="offset"/>
                    </mxGeometry>
                </mxCell>
                <mxCell id="n4xtXgPW--38ujpiByuB-32" value="TrafficSignals&lt;br&gt;(ParallelNode)" style="html=1;fontColor=#000000;fillColor=default;verticalAlign=top;" parent="1" vertex="1">
                    <mxGeometry x="350" y="270" width="240" height="300" as="geometry"/>
                </mxCell>
                <mxCell id="CBxx2FtU1XgJL7A9j_g7-9" value="" style="rounded=0;whiteSpace=wrap;html=1;fontSize=12;fontColor=#000000;fillColor=default;" parent="1" vertex="1">
                    <mxGeometry x="368" y="318" width="210" height="240" as="geometry"/>
                </mxCell>
                <mxCell id="CBxx2FtU1XgJL7A9j_g7-8" value="" style="rounded=0;whiteSpace=wrap;html=1;fontSize=12;fontColor=#000000;fillColor=default;" parent="1" vertex="1">
                    <mxGeometry x="364" y="314" width="210" height="240" as="geometry"/>
                </mxCell>
                <mxCell id="n4xtXgPW--38ujpiByuB-5" value="" style="endArrow=block;dashed=1;endFill=0;endSize=12;html=1;rounded=0;fontSize=12;fontColor=#000000;exitX=0.5;exitY=1;exitDx=0;exitDy=0;entryX=0.5;entryY=0;entryDx=0;entryDy=0;" parent="1" source="n4xtXgPW--38ujpiByuB-1" target="n4xtXgPW--38ujpiByuB-6" edge="1">
                    <mxGeometry width="160" relative="1" as="geometry">
                        <mxPoint x="540" y="150" as="sourcePoint"/>
                        <mxPoint x="630" y="160" as="targetPoint"/>
                    </mxGeometry>
                </mxCell>
                <mxCell id="n4xtXgPW--38ujpiByuB-6" value="TriggerableCompositeNode" style="swimlane;fontStyle=0;childLayout=stackLayout;horizontal=1;startSize=26;fillColor=none;horizontalStack=0;resizeParent=1;resizeParentMax=0;resizeLast=0;collapsible=1;marginBottom=0;fontSize=12;fontColor=#000000;" parent="1" vertex="1">
                    <mxGeometry x="40" y="476" width="280" height="104" as="geometry">
                        <mxRectangle x="390" y="180" width="190" height="30" as="alternateBounds"/>
                    </mxGeometry>
                </mxCell>
                <mxCell id="n4xtXgPW--38ujpiByuB-7" value="yase::Decorator StopTrigger // optional " style="text;strokeColor=none;fillColor=none;align=left;verticalAlign=top;spacingLeft=4;spacingRight=4;overflow=hidden;rotatable=0;points=[[0,0.5],[1,0.5]];portConstraint=eastwest;fontSize=12;fontColor=#000000;" parent="n4xtXgPW--38ujpiByuB-6" vertex="1">
                    <mxGeometry y="26" width="280" height="26" as="geometry"/>
                </mxCell>
                <mxCell id="n4xtXgPW--38ujpiByuB-8" value="yase::Decorator StartTrigger // optional" style="text;strokeColor=none;fillColor=none;align=left;verticalAlign=top;spacingLeft=4;spacingRight=4;overflow=hidden;rotatable=0;points=[[0,0.5],[1,0.5]];portConstraint=eastwest;fontSize=12;fontColor=#000000;" parent="n4xtXgPW--38ujpiByuB-6" vertex="1">
                    <mxGeometry y="52" width="280" height="26" as="geometry"/>
                </mxCell>
                <mxCell id="n4xtXgPW--38ujpiByuB-9" value="yase::BehaviorNode Child // execution path " style="text;strokeColor=none;fillColor=none;align=left;verticalAlign=top;spacingLeft=4;spacingRight=4;overflow=hidden;rotatable=0;points=[[0,0.5],[1,0.5]];portConstraint=eastwest;fontSize=12;fontColor=#000000;" parent="n4xtXgPW--38ujpiByuB-6" vertex="1">
                    <mxGeometry y="78" width="280" height="26" as="geometry"/>
                </mxCell>
                <mxCell id="n4xtXgPW--38ujpiByuB-40" value="" style="edgeStyle=orthogonalEdgeStyle;rounded=0;orthogonalLoop=1;jettySize=auto;html=1;fontSize=12;fontColor=#000000;" parent="1" source="n4xtXgPW--38ujpiByuB-14" target="n4xtXgPW--38ujpiByuB-30" edge="1">
                    <mxGeometry relative="1" as="geometry"/>
                </mxCell>
                <mxCell id="n4xtXgPW--38ujpiByuB-14" value="RootNode&#10;(ParallelNode)" style="swimlane;fontStyle=0;childLayout=stackLayout;horizontal=1;startSize=40;fillColor=none;horizontalStack=0;resizeParent=1;resizeParentMax=0;resizeLast=0;collapsible=1;marginBottom=0;fontSize=12;fontColor=#000000;" parent="1" vertex="1">
                    <mxGeometry x="210" y="40" width="240" height="92" as="geometry">
                        <mxRectangle x="390" y="180" width="190" height="30" as="alternateBounds"/>
                    </mxGeometry>
                </mxCell>
                <mxCell id="n4xtXgPW--38ujpiByuB-15" value="📚 mantle_api::IEnvironment environment" style="text;strokeColor=none;fillColor=none;align=left;verticalAlign=top;spacingLeft=4;spacingRight=4;overflow=hidden;rotatable=0;points=[[0,0.5],[1,0.5]];portConstraint=eastwest;fontSize=12;fontColor=#000000;" parent="n4xtXgPW--38ujpiByuB-14" vertex="1">
                    <mxGeometry y="40" width="240" height="26" as="geometry"/>
                </mxCell>
                <mxCell id="n4xtXgPW--38ujpiByuB-16" value="📚 EngineAbortFlags engine_abort_flags" style="text;strokeColor=none;fillColor=none;align=left;verticalAlign=top;spacingLeft=4;spacingRight=4;overflow=hidden;rotatable=0;points=[[0,0.5],[1,0.5]];portConstraint=eastwest;fontSize=12;fontColor=#000000;" parent="n4xtXgPW--38ujpiByuB-14" vertex="1">
                    <mxGeometry y="66" width="240" height="26" as="geometry"/>
                </mxCell>
                <mxCell id="n4xtXgPW--38ujpiByuB-18" value="" style="group;fontColor=#000000;" parent="1" vertex="1" connectable="0">
                    <mxGeometry x="40" y="180" width="280" height="260" as="geometry"/>
                </mxCell>
                <mxCell id="n4xtXgPW--38ujpiByuB-1" value="Storyboard" style="html=1;dropTarget=0;fontSize=12;fontColor=#000000;fillColor=default;verticalAlign=top;" parent="n4xtXgPW--38ujpiByuB-18" vertex="1">
                    <mxGeometry width="280" height="260" as="geometry"/>
                </mxCell>
                <mxCell id="n4xtXgPW--38ujpiByuB-2" value="" style="shape=module;jettyWidth=8;jettyHeight=4;fontSize=8;fontColor=#000000;fillColor=default;" parent="n4xtXgPW--38ujpiByuB-1" vertex="1">
                    <mxGeometry x="1" width="20" height="20" relative="1" as="geometry">
                        <mxPoint x="-27" y="7" as="offset"/>
                    </mxGeometry>
                </mxCell>
                <mxCell id="n4xtXgPW--38ujpiByuB-11" value="StoryboardMediator&lt;br&gt;(SequenceNode)" style="html=1;fontColor=#000000;fillColor=default;verticalAlign=top;" parent="n4xtXgPW--38ujpiByuB-18" vertex="1">
                    <mxGeometry x="100" y="83.2" width="170" height="166.4" as="geometry"/>
                </mxCell>
                <mxCell id="AjTgszWIrmIjMv5CikoF-7" value="ConditionGroups&lt;br&gt;&lt;i&gt;(☛&amp;nbsp;ConditionPath)&lt;/i&gt;" style="html=1;fontColor=#000000;fillColor=default;" parent="n4xtXgPW--38ujpiByuB-18" vertex="1">
                    <mxGeometry x="100" y="31.200000000000003" width="170" height="41.6" as="geometry"/>
                </mxCell>
                <mxCell id="n4xtXgPW--38ujpiByuB-3" value="Stories&lt;br&gt;&lt;i&gt;(&lt;/i&gt;&lt;i&gt;☛&amp;nbsp;&lt;/i&gt;&lt;i&gt;StoryPath)&lt;/i&gt;" style="html=1;fontColor=#000000;fillColor=default;" parent="n4xtXgPW--38ujpiByuB-18" vertex="1">
                    <mxGeometry x="110" y="187.20000000000002" width="150" height="46.800000000000004" as="geometry"/>
                </mxCell>
                <mxCell id="n4xtXgPW--38ujpiByuB-10" value="Init&lt;br&gt;&lt;i&gt;(&lt;/i&gt;&lt;i&gt;☛&amp;nbsp;&lt;/i&gt;&lt;i&gt;InitPath)&lt;/i&gt;" style="html=1;fontColor=#000000;fillColor=default;" parent="n4xtXgPW--38ujpiByuB-18" vertex="1">
                    <mxGeometry x="110" y="135.20000000000002" width="150" height="46.800000000000004" as="geometry"/>
                </mxCell>
                <mxCell id="n4xtXgPW--38ujpiByuB-12" value="@StopTrigger" style="text;html=1;align=left;verticalAlign=middle;resizable=0;points=[];autosize=1;strokeColor=none;fillColor=none;fontSize=12;fontColor=#000000;" parent="n4xtXgPW--38ujpiByuB-18" vertex="1">
                    <mxGeometry x="10" y="36.4" width="100" height="30" as="geometry"/>
                </mxCell>
                <mxCell id="n4xtXgPW--38ujpiByuB-13" value="Child" style="text;html=1;align=left;verticalAlign=middle;resizable=0;points=[];autosize=1;strokeColor=none;fillColor=none;fontSize=12;fontColor=#000000;" parent="n4xtXgPW--38ujpiByuB-18" vertex="1">
                    <mxGeometry x="10" y="150.8" width="50" height="30" as="geometry"/>
                </mxCell>
                <mxCell id="n4xtXgPW--38ujpiByuB-41" value="" style="edgeStyle=orthogonalEdgeStyle;rounded=0;orthogonalLoop=1;jettySize=auto;html=1;fontSize=12;fontColor=#000000;exitX=0.5;exitY=1.006;exitDx=0;exitDy=0;exitPerimeter=0;entryX=0.5;entryY=0;entryDx=0;entryDy=0;" parent="1" source="n4xtXgPW--38ujpiByuB-16" target="n4xtXgPW--38ujpiByuB-1" edge="1">
                    <mxGeometry relative="1" as="geometry">
                        <mxPoint x="330" y="140" as="sourcePoint"/>
                        <mxPoint x="480" y="190" as="targetPoint"/>
                    </mxGeometry>
                </mxCell>
                <mxCell id="n4xtXgPW--38ujpiByuB-33" value="@StopAtNode&lt;br&gt;(📚EngineAbortFlags)" style="html=1;fontColor=#000000;fillColor=default;" parent="1" vertex="1">
                    <mxGeometry x="350" y="220" width="240" height="40" as="geometry"/>
                </mxCell>
                <mxCell id="JU5ucxXRTpsp8C7SjWgy-1" value="TrafficController" style="html=1;dropTarget=0;fontSize=12;fontColor=#000000;fillColor=default;verticalAlign=top;" parent="1" vertex="1">
                    <mxGeometry x="360" y="310" width="210" height="240" as="geometry"/>
                </mxCell>
                <mxCell id="JU5ucxXRTpsp8C7SjWgy-2" value="" style="shape=module;jettyWidth=8;jettyHeight=4;fontSize=8;fontColor=#000000;fillColor=default;" parent="JU5ucxXRTpsp8C7SjWgy-1" vertex="1">
                    <mxGeometry x="1" width="20" height="20" relative="1" as="geometry">
                        <mxPoint x="-27" y="7" as="offset"/>
                    </mxGeometry>
                </mxCell>
                <mxCell id="CBxx2FtU1XgJL7A9j_g7-5" style="edgeStyle=orthogonalEdgeStyle;rounded=0;orthogonalLoop=1;jettySize=auto;html=1;exitX=0.1;exitY=1;exitDx=0;exitDy=0;entryX=0;entryY=0.5;entryDx=0;entryDy=0;fontSize=12;fontColor=#000000;exitPerimeter=0;" parent="1" source="n4xtXgPW--38ujpiByuB-35" target="CBxx2FtU1XgJL7A9j_g7-1" edge="1">
                    <mxGeometry relative="1" as="geometry"/>
                </mxCell>
                <mxCell id="n4xtXgPW--38ujpiByuB-35" value="RepeatingSequenceNode" style="html=1;fontColor=#000000;fillColor=default;points=[[0,0,0,0,0],[0,0.24,0,0,0],[0,0.51,0,0,0],[0,0.76,0,0,0],[0,1,0,0,0],[0.1,1,0,0,0],[0.25,0,0,0,0],[0.25,1,0,0,0],[0.5,0,0,0,0],[0.5,1,0,0,0],[0.75,0,0,0,0],[0.75,1,0,0,0],[1,0,0,0,0],[1,0.24,0,0,0],[1,0.51,0,0,0],[1,0.76,0,0,0],[1,1,0,0,0]];" parent="1" vertex="1">
                    <mxGeometry x="370" y="350" width="190" height="45" as="geometry"/>
                </mxCell>
                <mxCell id="JU5ucxXRTpsp8C7SjWgy-3" value="TrafficSignalPhaseNode" style="html=1;fontColor=#000000;fillColor=default;" parent="1" vertex="1">
                    <mxGeometry x="410" y="400" width="150" height="45" as="geometry"/>
                </mxCell>
                <mxCell id="CBxx2FtU1XgJL7A9j_g7-2" value="..." style="html=1;fontColor=#000000;fillColor=default;dashed=1;" parent="1" vertex="1">
                    <mxGeometry x="410" y="499.5" width="150" height="45" as="geometry"/>
                </mxCell>
                <mxCell id="CBxx2FtU1XgJL7A9j_g7-6" style="edgeStyle=orthogonalEdgeStyle;rounded=0;orthogonalLoop=1;jettySize=auto;html=1;exitX=0.1;exitY=1;exitDx=0;exitDy=0;entryX=0;entryY=0.5;entryDx=0;entryDy=0;fontSize=12;fontColor=#000000;exitPerimeter=0;" parent="1" source="n4xtXgPW--38ujpiByuB-35" target="JU5ucxXRTpsp8C7SjWgy-3" edge="1">
                    <mxGeometry relative="1" as="geometry">
                        <mxPoint x="399" y="405" as="sourcePoint"/>
                        <mxPoint x="420" y="477.5" as="targetPoint"/>
                        <Array as="points">
                            <mxPoint x="389" y="423"/>
                        </Array>
                    </mxGeometry>
                </mxCell>
                <mxCell id="CBxx2FtU1XgJL7A9j_g7-7" style="edgeStyle=orthogonalEdgeStyle;rounded=0;orthogonalLoop=1;jettySize=auto;html=1;exitX=0.1;exitY=1;exitDx=0;exitDy=0;entryX=0;entryY=0.5;entryDx=0;entryDy=0;fontSize=12;fontColor=#000000;exitPerimeter=0;dashed=1;" parent="1" source="n4xtXgPW--38ujpiByuB-35" target="CBxx2FtU1XgJL7A9j_g7-2" edge="1">
                    <mxGeometry relative="1" as="geometry">
                        <mxPoint x="399" y="405" as="sourcePoint"/>
                        <mxPoint x="420" y="477.5" as="targetPoint"/>
                    </mxGeometry>
                </mxCell>
                <mxCell id="CBxx2FtU1XgJL7A9j_g7-1" value="TrafficSignalPhaseNode" style="html=1;fontColor=#000000;fillColor=default;" parent="1" vertex="1">
                    <mxGeometry x="410" y="450" width="150" height="45" as="geometry"/>
                </mxCell>
            </root>
        </mxGraphModel>
    </diagram>
</mxfile>